CA 1/Lab 2/simulation/qsim/Single-Cycle_Processor.msim.vcd
$comment
	File created using the following command:
		vcd file Single-Cycle_Processor.msim.vcd -direction
$end
$date
	Thu Apr 04 12:51:46 2019
$end
$version
	ModelSim Version 10.5b
$end
$timescale
	1ps
$end

$scope module barrelshifter_vhd_vec_tst $end
$var wire 1 ! IN_SRC2 [31] $end
$var wire 1 " IN_SRC2 [30] $end
$var wire 1 # IN_SRC2 [29] $end
$var wire 1 $ IN_SRC2 [28] $end
$var wire 1 % IN_SRC2 [27] $end
$var wire 1 & IN_SRC2 [26] $end
$var wire 1 ' IN_SRC2 [25] $end
$var wire 1 ( IN_SRC2 [24] $end
$var wire 1 ) IN_SRC2 [23] $end
$var wire 1 * IN_SRC2 [22] $end
$var wire 1 + IN_SRC2 [21] $end
$var wire 1 , IN_SRC2 [20] $end
$var wire 1 - IN_SRC2 [19] $end
$var wire 1 . IN_SRC2 [18] $end
$var wire 1 / IN_SRC2 [17] $end
$var wire 1 0 IN_SRC2 [16] $end
$var wire 1 1 IN_SRC2 [15] $end
$var wire 1 2 IN_SRC2 [14] $end
$var wire 1 3 IN_SRC2 [13] $end
$var wire 1 4 IN_SRC2 [12] $end
$var wire 1 5 IN_SRC2 [11] $end
$var wire 1 6 IN_SRC2 [10] $end
$var wire 1 7 IN_SRC2 [9] $end
$var wire 1 8 IN_SRC2 [8] $end
$var wire 1 9 IN_SRC2 [7] $end
$var wire 1 : IN_SRC2 [6] $end
$var wire 1 ; IN_SRC2 [5] $end
$var wire 1 < IN_SRC2 [4] $end
$var wire 1 = IN_SRC2 [3] $end
$var wire 1 > IN_SRC2 [2] $end
$var wire 1 ? IN_SRC2 [1] $end
$var wire 1 @ IN_SRC2 [0] $end
$var wire 1 A OUT_SRC2 [31] $end
$var wire 1 B OUT_SRC2 [30] $end
$var wire 1 C OUT_SRC2 [29] $end
$var wire 1 D OUT_SRC2 [28] $end
$var wire 1 E OUT_SRC2 [27] $end
$var wire 1 F OUT_SRC2 [26] $end
$var wire 1 G OUT_SRC2 [25] $end
$var wire 1 H OUT_SRC2 [24] $end
$var wire 1 I OUT_SRC2 [23] $end
$var wire 1 J OUT_SRC2 [22] $end
$var wire 1 K OUT_SRC2 [21] $end
$var wire 1 L OUT_SRC2 [20] $end
$var wire 1 M OUT_SRC2 [19] $end
$var wire 1 N OUT_SRC2 [18] $end
$var wire 1 O OUT_SRC2 [17] $end
$var wire 1 P OUT_SRC2 [16] $end
$var wire 1 Q OUT_SRC2 [15] $end
$var wire 1 R OUT_SRC2 [14] $end
$var wire 1 S OUT_SRC2 [13] $end
$var wire 1 T OUT_SRC2 [12] $end
$var wire 1 U OUT_SRC2 [11] $end
$var wire 1 V OUT_SRC2 [10] $end
$var wire 1 W OUT_SRC2 [9] $end
$var wire 1 X OUT_SRC2 [8] $end
$var wire 1 Y OUT_SRC2 [7] $end
$var wire 1 Z OUT_SRC2 [6] $end
$var wire 1 [ OUT_SRC2 [5] $end
$var wire 1 \ OUT_SRC2 [4] $end
$var wire 1 ] OUT_SRC2 [3] $end
$var wire 1 ^ OUT_SRC2 [2] $end
$var wire 1 _ OUT_SRC2 [1] $end
$var wire 1 ` OUT_SRC2 [0] $end
$var wire 1 a ROTATE [3] $end
$var wire 1 b ROTATE [2] $end
$var wire 1 c ROTATE [1] $end
$var wire 1 d ROTATE [0] $end

$scope module i1 $end
$var wire 1 e gnd $end
$var wire 1 f vcc $end
$var wire 1 g unknown $end
$var wire 1 h devoe $end
$var wire 1 i devclrn $end
$var wire 1 j devpor $end
$var wire 1 k ww_devoe $end
$var wire 1 l ww_devclrn $end
$var wire 1 m ww_devpor $end
$var wire 1 n ww_IN_SRC2 [31] $end
$var wire 1 o ww_IN_SRC2 [30] $end
$var wire 1 p ww_IN_SRC2 [29] $end
$var wire 1 q ww_IN_SRC2 [28] $end
$var wire 1 r ww_IN_SRC2 [27] $end
$var wire 1 s ww_IN_SRC2 [26] $end
$var wire 1 t ww_IN_SRC2 [25] $end
$var wire 1 u ww_IN_SRC2 [24] $end
$var wire 1 v ww_IN_SRC2 [23] $end
$var wire 1 w ww_IN_SRC2 [22] $end
$var wire 1 x ww_IN_SRC2 [21] $end
$var wire 1 y ww_IN_SRC2 [20] $end
$var wire 1 z ww_IN_SRC2 [19] $end
$var wire 1 { ww_IN_SRC2 [18] $end
$var wire 1 | ww_IN_SRC2 [17] $end
$var wire 1 } ww_IN_SRC2 [16] $end
$var wire 1 ~ ww_IN_SRC2 [15] $end
$var wire 1 !! ww_IN_SRC2 [14] $end
$var wire 1 "! ww_IN_SRC2 [13] $end
$var wire 1 #! ww_IN_SRC2 [12] $end
$var wire 1 $! ww_IN_SRC2 [11] $end
$var wire 1 %! ww_IN_SRC2 [10] $end
$var wire 1 &! ww_IN_SRC2 [9] $end
$var wire 1 '! ww_IN_SRC2 [8] $end
$var wire 1 (! ww_IN_SRC2 [7] $end
$var wire 1 )! ww_IN_SRC2 [6] $end
$var wire 1 *! ww_IN_SRC2 [5] $end
$var wire 1 +! ww_IN_SRC2 [4] $end
$var wire 1 ,! ww_IN_SRC2 [3] $end
$var wire 1 -! ww_IN_SRC2 [2] $end
$var wire 1 .! ww_IN_SRC2 [1] $end
$var wire 1 /! ww_IN_SRC2 [0] $end
$var wire 1 0! ww_ROTATE [3] $end
$var wire 1 1! ww_ROTATE [2] $end
$var wire 1 2! ww_ROTATE [1] $end
$var wire 1 3! ww_ROTATE [0] $end
$var wire 1 4! ww_OUT_SRC2 [31] $end
$var wire 1 5! ww_OUT_SRC2 [30] $end
$var wire 1 6! ww_OUT_SRC2 [29] $end
$var wire 1 7! ww_OUT_SRC2 [28] $end
$var wire 1 8! ww_OUT_SRC2 [27] $end
$var wire 1 9! ww_OUT_SRC2 [26] $end
$var wire 1 :! ww_OUT_SRC2 [25] $end
$var wire 1 ;! ww_OUT_SRC2 [24] $end
$var wire 1 <! ww_OUT_SRC2 [23] $end
$var wire 1 =! ww_OUT_SRC2 [22] $end
$var wire 1 >! ww_OUT_SRC2 [21] $end
$var wire 1 ?! ww_OUT_SRC2 [20] $end
$var wire 1 @! ww_OUT_SRC2 [19] $end
$var wire 1 A! ww_OUT_SRC2 [18] $end
$var wire 1 B! ww_OUT_SRC2 [17] $end
$var wire 1 C! ww_OUT_SRC2 [16] $end
$var wire 1 D! ww_OUT_SRC2 [15] $end
$var wire 1 E! ww_OUT_SRC2 [14] $end
$var wire 1 F! ww_OUT_SRC2 [13] $end
$var wire 1 G! ww_OUT_SRC2 [12] $end
$var wire 1 H! ww_OUT_SRC2 [11] $end
$var wire 1 I! ww_OUT_SRC2 [10] $end
$var wire 1 J! ww_OUT_SRC2 [9] $end
$var wire 1 K! ww_OUT_SRC2 [8] $end
$var wire 1 L! ww_OUT_SRC2 [7] $end
$var wire 1 M! ww_OUT_SRC2 [6] $end
$var wire 1 N! ww_OUT_SRC2 [5] $end
$var wire 1 O! ww_OUT_SRC2 [4] $end
$var wire 1 P! ww_OUT_SRC2 [3] $end
$var wire 1 Q! ww_OUT_SRC2 [2] $end
$var wire 1 R! ww_OUT_SRC2 [1] $end
$var wire 1 S! ww_OUT_SRC2 [0] $end
$var wire 1 T! \OUT_SRC2[0]~output_o\ $end
$var wire 1 U! \OUT_SRC2[1]~output_o\ $end
$var wire 1 V! \OUT_SRC2[2]~output_o\ $end
$var wire 1 W! \OUT_SRC2[3]~output_o\ $end
$var wire 1 X! \OUT_SRC2[4]~output_o\ $end
$var wire 1 Y! \OUT_SRC2[5]~output_o\ $end
$var wire 1 Z! \OUT_SRC2[6]~output_o\ $end
$var wire 1 [! \OUT_SRC2[7]~output_o\ $end
$var wire 1 \! \OUT_SRC2[8]~output_o\ $end
$var wire 1 ]! \OUT_SRC2[9]~output_o\ $end
$var wire 1 ^! \OUT_SRC2[10]~output_o\ $end
$var wire 1 _! \OUT_SRC2[11]~output_o\ $end
$var wire 1 `! \OUT_SRC2[12]~output_o\ $end
$var wire 1 a! \OUT_SRC2[13]~output_o\ $end
$var wire 1 b! \OUT_SRC2[14]~output_o\ $end
$var wire 1 c! \OUT_SRC2[15]~output_o\ $end
$var wire 1 d! \OUT_SRC2[16]~output_o\ $end
$var wire 1 e! \OUT_SRC2[17]~output_o\ $end
$var wire 1 f! \OUT_SRC2[18]~output_o\ $end
$var wire 1 g! \OUT_SRC2[19]~output_o\ $end
$var wire 1 h! \OUT_SRC2[20]~output_o\ $end
$var wire 1 i! \OUT_SRC2[21]~output_o\ $end
$var wire 1 j! \OUT_SRC2[22]~output_o\ $end
$var wire 1 k! \OUT_SRC2[23]~output_o\ $end
$var wire 1 l! \OUT_SRC2[24]~output_o\ $end
$var wire 1 m! \OUT_SRC2[25]~output_o\ $end
$var wire 1 n! \OUT_SRC2[26]~output_o\ $end
$var wire 1 o! \OUT_SRC2[27]~output_o\ $end
$var wire 1 p! \OUT_SRC2[28]~output_o\ $end
$var wire 1 q! \OUT_SRC2[29]~output_o\ $end
$var wire 1 r! \OUT_SRC2[30]~output_o\ $end
$var wire 1 s! \OUT_SRC2[31]~output_o\ $end
$var wire 1 t! \ROTATE[2]~input_o\ $end
$var wire 1 u! \ROTATE[3]~input_o\ $end
$var wire 1 v! \Mux31~0_combout\ $end
$var wire 1 w! \IN_SRC2[6]~input_o\ $end
$var wire 1 x! \IN_SRC2[2]~input_o\ $end
$var wire 1 y! \ROTATE[1]~input_o\ $end
$var wire 1 z! \Mux1~0_combout\ $end
$var wire 1 {! \IN_SRC2[4]~input_o\ $end
$var wire 1 |! \IN_SRC2[0]~input_o\ $end
$var wire 1 }! \Mux1~1_combout\ $end
$var wire 1 ~! \ROTATE[0]~input_o\ $end
$var wire 1 !" \Mux31~1_combout\ $end
$var wire 1 "" \IN_SRC2[30]~input_o\ $end
$var wire 1 #" \IN_SRC2[26]~input_o\ $end
$var wire 1 $" \Mux1~2_combout\ $end
$var wire 1 %" \IN_SRC2[28]~input_o\ $end
$var wire 1 &" \IN_SRC2[24]~input_o\ $end
$var wire 1 '" \Mux31~2_combout\ $end
$var wire 1 (" \Mux31~3_combout\ $end
$var wire 1 )" \IN_SRC2[22]~input_o\ $end
$var wire 1 *" \IN_SRC2[18]~input_o\ $end
$var wire 1 +" \Mux1~3_combout\ $end
$var wire 1 ," \IN_SRC2[20]~input_o\ $end
$var wire 1 -" \IN_SRC2[16]~input_o\ $end
$var wire 1 ." \Mux31~4_combout\ $end
$var wire 1 /" \Mux31~5_combout\ $end
$var wire 1 0" \Mux15~0_combout\ $end
$var wire 1 1" \Mux15~1_combout\ $end
$var wire 1 2" \Mux31~6_combout\ $end
$var wire 1 3" \IN_SRC2[14]~input_o\ $end
$var wire 1 4" \IN_SRC2[10]~input_o\ $end
$var wire 1 5" \Mux1~4_combout\ $end
$var wire 1 6" \IN_SRC2[12]~input_o\ $end
$var wire 1 7" \IN_SRC2[8]~input_o\ $end
$var wire 1 8" \Mux31~7_combout\ $end
$var wire 1 9" \Mux31~8_combout\ $end
$var wire 1 :" \Mux31~9_combout\ $end
$var wire 1 ;" \Mux31~10_combout\ $end
$var wire 1 <" \IN_SRC2[7]~input_o\ $end
$var wire 1 =" \IN_SRC2[3]~input_o\ $end
$var wire 1 >" \Mux0~0_combout\ $end
$var wire 1 ?" \IN_SRC2[5]~input_o\ $end
$var wire 1 @" \IN_SRC2[1]~input_o\ $end
$var wire 1 A" \Mux0~1_combout\ $end
$var wire 1 B" \Mux30~0_combout\ $end
$var wire 1 C" \IN_SRC2[23]~input_o\ $end
$var wire 1 D" \IN_SRC2[19]~input_o\ $end
$var wire 1 E" \Mux0~2_combout\ $end
$var wire 1 F" \IN_SRC2[21]~input_o\ $end
$var wire 1 G" \IN_SRC2[17]~input_o\ $end
$var wire 1 H" \Mux30~1_combout\ $end
$var wire 1 I" \Mux30~2_combout\ $end
$var wire 1 J" \IN_SRC2[31]~input_o\ $end
$var wire 1 K" \IN_SRC2[27]~input_o\ $end
$var wire 1 L" \Mux0~3_combout\ $end
$var wire 1 M" \IN_SRC2[29]~input_o\ $end
$var wire 1 N" \IN_SRC2[25]~input_o\ $end
$var wire 1 O" \Mux30~3_combout\ $end
$var wire 1 P" \Mux30~4_combout\ $end
$var wire 1 Q" \Mux30~5_combout\ $end
$var wire 1 R" \IN_SRC2[15]~input_o\ $end
$var wire 1 S" \IN_SRC2[11]~input_o\ $end
$var wire 1 T" \Mux0~4_combout\ $end
$var wire 1 U" \IN_SRC2[13]~input_o\ $end
$var wire 1 V" \IN_SRC2[9]~input_o\ $end
$var wire 1 W" \Mux30~6_combout\ $end
$var wire 1 X" \Mux30~7_combout\ $end
$var wire 1 Y" \Mux30~8_combout\ $end
$var wire 1 Z" \Mux31~11_combout\ $end
$var wire 1 [" \Mux29~0_combout\ $end
$var wire 1 \" \Mux31~12_combout\ $end
$var wire 1 ]" \Mux1~5_combout\ $end
$var wire 1 ^" \Mux1~6_combout\ $end
$var wire 1 _" \Mux1~7_combout\ $end
$var wire 1 `" \Mux29~1_combout\ $end
$var wire 1 a" \Mux31~13_combout\ $end
$var wire 1 b" \Mux1~8_combout\ $end
$var wire 1 c" \Mux29~2_combout\ $end
$var wire 1 d" \Mux30~9_combout\ $end
$var wire 1 e" \Mux28~0_combout\ $end
$var wire 1 f" \Mux30~10_combout\ $end
$var wire 1 g" \Mux0~5_combout\ $end
$var wire 1 h" \Mux0~6_combout\ $end
$var wire 1 i" \Mux0~7_combout\ $end
$var wire 1 j" \Mux28~1_combout\ $end
$var wire 1 k" \Mux30~11_combout\ $end
$var wire 1 l" \Mux0~8_combout\ $end
$var wire 1 m" \Mux28~2_combout\ $end
$var wire 1 n" \Mux1~9_combout\ $end
$var wire 1 o" \Mux27~0_combout\ $end
$var wire 1 p" \Mux1~10_combout\ $end
$var wire 1 q" \Mux31~14_combout\ $end
$var wire 1 r" \Mux1~11_combout\ $end
$var wire 1 s" \Mux31~15_combout\ $end
$var wire 1 t" \Mux27~1_combout\ $end
$var wire 1 u" \Mux1~12_combout\ $end
$var wire 1 v" \Mux31~16_combout\ $end
$var wire 1 w" \Mux27~2_combout\ $end
$var wire 1 x" \Mux0~9_combout\ $end
$var wire 1 y" \Mux26~0_combout\ $end
$var wire 1 z" \Mux0~10_combout\ $end
$var wire 1 {" \Mux30~12_combout\ $end
$var wire 1 |" \Mux0~11_combout\ $end
$var wire 1 }" \Mux30~13_combout\ $end
$var wire 1 ~" \Mux26~1_combout\ $end
$var wire 1 !# \Mux0~12_combout\ $end
$var wire 1 "# \Mux30~14_combout\ $end
$var wire 1 ## \Mux26~2_combout\ $end
$var wire 1 $# \Mux1~13_combout\ $end
$var wire 1 %# \Mux1~14_combout\ $end
$var wire 1 &# \Mux25~0_combout\ $end
$var wire 1 '# \Mux25~1_combout\ $end
$var wire 1 (# \Mux1~15_combout\ $end
$var wire 1 )# \Mux25~2_combout\ $end
$var wire 1 *# \Mux0~13_combout\ $end
$var wire 1 +# \Mux0~14_combout\ $end
$var wire 1 ,# \Mux24~0_combout\ $end
$var wire 1 -# \Mux24~1_combout\ $end
$var wire 1 .# \Mux0~15_combout\ $end
$var wire 1 /# \Mux24~2_combout\ $end
$var wire 1 0# \Mux23~0_combout\ $end
$var wire 1 1# \Mux23~1_combout\ $end
$var wire 1 2# \Mux23~2_combout\ $end
$var wire 1 3# \Mux22~0_combout\ $end
$var wire 1 4# \Mux22~1_combout\ $end
$var wire 1 5# \Mux22~2_combout\ $end
$var wire 1 6# \Mux21~0_combout\ $end
$var wire 1 7# \Mux21~1_combout\ $end
$var wire 1 8# \Mux21~2_combout\ $end
$var wire 1 9# \Mux20~0_combout\ $end
$var wire 1 :# \Mux20~1_combout\ $end
$var wire 1 ;# \Mux20~2_combout\ $end
$var wire 1 <# \Mux19~0_combout\ $end
$var wire 1 =# \Mux19~1_combout\ $end
$var wire 1 ># \Mux19~2_combout\ $end
$var wire 1 ?# \Mux18~0_combout\ $end
$var wire 1 @# \Mux18~1_combout\ $end
$var wire 1 A# \Mux18~2_combout\ $end
$var wire 1 B# \Mux17~0_combout\ $end
$var wire 1 C# \Mux17~1_combout\ $end
$var wire 1 D# \Mux17~2_combout\ $end
$var wire 1 E# \Mux16~0_combout\ $end
$var wire 1 F# \Mux16~1_combout\ $end
$var wire 1 G# \Mux16~2_combout\ $end
$var wire 1 H# \Mux15~2_combout\ $end
$var wire 1 I# \Mux15~3_combout\ $end
$var wire 1 J# \Mux15~4_combout\ $end
$var wire 1 K# \Mux14~0_combout\ $end
$var wire 1 L# \Mux14~1_combout\ $end
$var wire 1 M# \Mux14~2_combout\ $end
$var wire 1 N# \Mux13~0_combout\ $end
$var wire 1 O# \Mux13~1_combout\ $end
$var wire 1 P# \Mux13~2_combout\ $end
$var wire 1 Q# \Mux12~0_combout\ $end
$var wire 1 R# \Mux12~1_combout\ $end
$var wire 1 S# \Mux12~2_combout\ $end
$var wire 1 T# \Mux11~0_combout\ $end
$var wire 1 U# \Mux11~1_combout\ $end
$var wire 1 V# \Mux11~2_combout\ $end
$var wire 1 W# \Mux10~0_combout\ $end
$var wire 1 X# \Mux10~1_combout\ $end
$var wire 1 Y# \Mux10~2_combout\ $end
$var wire 1 Z# \Mux9~0_combout\ $end
$var wire 1 [# \Mux9~1_combout\ $end
$var wire 1 \# \Mux9~2_combout\ $end
$var wire 1 ]# \Mux8~0_combout\ $end
$var wire 1 ^# \Mux8~1_combout\ $end
$var wire 1 _# \Mux8~2_combout\ $end
$var wire 1 `# \Mux7~0_combout\ $end
$var wire 1 a# \Mux7~1_combout\ $end
$var wire 1 b# \Mux7~2_combout\ $end
$var wire 1 c# \Mux6~0_combout\ $end
$var wire 1 d# \Mux6~1_combout\ $end
$var wire 1 e# \Mux6~2_combout\ $end
$var wire 1 f# \Mux5~0_combout\ $end
$var wire 1 g# \Mux5~1_combout\ $end
$var wire 1 h# \Mux5~2_combout\ $end
$var wire 1 i# \Mux4~0_combout\ $end
$var wire 1 j# \Mux4~1_combout\ $end
$var wire 1 k# \Mux4~2_combout\ $end
$var wire 1 l# \Mux3~0_combout\ $end
$var wire 1 m# \Mux3~1_combout\ $end
$var wire 1 n# \Mux3~2_combout\ $end
$var wire 1 o# \Mux2~0_combout\ $end
$var wire 1 p# \Mux2~1_combout\ $end
$var wire 1 q# \Mux2~2_combout\ $end
$var wire 1 r# \Mux1~16_combout\ $end
$var wire 1 s# \Mux1~17_combout\ $end
$var wire 1 t# \Mux1~18_combout\ $end
$var wire 1 u# \Mux0~16_combout\ $end
$var wire 1 v# \Mux0~17_combout\ $end
$var wire 1 w# \Mux0~18_combout\ $end
$upscope $end
$upscope $end
$enddefinitions $end
#0
$dumpvars
0e
1f
xg
1h
1i
1j
1k
1l
1m
1T!
0U!
0V!
0W!
0X!
0Y!
0Z!
0[!
0\!
0]!
0^!
0_!
0`!
0a!
0b!
0c!
0d!
0e!
0f!
0g!
0h!
0i!
0j!
0k!
0l!
0m!
0n!
0o!
0p!
0q!
0r!
0s!
0t!
0u!
1v!
0w!
0x!
0y!
0z!
0{!
1|!
1}!
0~!
1!"
0""
0#"
0$"
0%"
0&"
0'"
0("
0)"
0*"
0+"
0,"
0-"
0."
0/"
00"
01"
02"
03"
04"
05"
06"
07"
08"
09"
0:"
1;"
0<"
0="
0>"
0?"
0@"
0A"
0B"
0C"
0D"
0E"
0F"
0G"
0H"
0I"
0J"
0K"
0L"
0M"
0N"
0O"
0P"
0Q"
0R"
0S"
0T"
0U"
0V"
0W"
0X"
0Y"
0Z"
0["
0\"
0]"
0^"
0_"
0`"
0a"
0b"
0c"
0d"
0e"
0f"
0g"
0h"
0i"
0j"
0k"
0l"
0m"
0n"
0o"
0p"
0q"
0r"
0s"
0t"
0u"
0v"
0w"
0x"
0y"
0z"
0{"
0|"
0}"
0~"
0!#
0"#
0##
0$#
0%#
0&#
0'#
0(#
0)#
0*#
0+#
0,#
0-#
0.#
0/#
00#
01#
02#
03#
04#
05#
06#
07#
08#
09#
0:#
0;#
0<#
0=#
0>#
0?#
0@#
0A#
0B#
0C#
0D#
0E#
0F#
0G#
0H#
0I#
0J#
0K#
0L#
0M#
0N#
0O#
0P#
0Q#
0R#
0S#
0T#
0U#
0V#
0W#
0X#
0Y#
0Z#
0[#
0\#
0]#
0^#
0_#
0`#
0a#
0b#
0c#
0d#
0e#
0f#
0g#
0h#
0i#
0j#
0k#
0l#
0m#
0n#
0o#
0p#
0q#
0r#
0s#
0t#
0u#
0v#
0w#
0!
0"
0#
0$
0%
0&
0'
0(
0)
0*
0+
0,
0-
0.
0/
00
01
02
03
04
05
06
07
08
09
0:
0;
0<
0=
0>
0?
1@
0a
0b
0c
0d
0n
0o
0p
0q
0r
0s
0t
0u
0v
0w
0x
0y
0z
0{
0|
0}
0~
0!!
0"!
0#!
0$!
0%!
0&!
0'!
0(!
0)!
0*!
0+!
0,!
0-!
0.!
1/!
00!
01!
02!
03!
04!
05!
06!
07!
08!
09!
0:!
0;!
0<!
0=!
0>!
0?!
0@!
0A!
0B!
0C!
0D!
0E!
0F!
0G!
0H!
0I!
0J!
0K!
0L!
0M!
0N!
0O!
0P!
0Q!
0R!
1S!
0A
0B
0C
0D
0E
0F
0G
0H
0I
0J
0K
0L
0M
0N
0O
0P
0Q
0R
0S
0T
0U
0V
0W
0X
0Y
0Z
0[
0\
0]
0^
0_
1`
$end
#60000
1d
13!
1~!
0!"
1s#
1t#
0;"
0T!
1r!
0S!
15!
0`
1B
#120000
0d
1c
03!
12!
1y!
0~!
1!"
0s#
0}!
1^"
1s"
0!"
0t#
1;"
1T!
0r!
0;"
1n#
1S!
05!
1p!
0T!
1`
0B
17!
0S!
0`
1D
#180000
1d
13!
1~!
1_"
0s"
0n#
1h#
1n!
0p!
19!
07!
1F
0D
#240000
0d
0c
1b
03!
02!
11!
1t!
0y!
0~!
0_"
1s"
1}!
0^"
0v!
1:"
0s"
1a#
1U#
0h#
0n!
1V#
1b#
0U#
09!
1l!
1h!
0V#
0F
1;!
1?!
0h!
1L
1H
0?!
0L
#300000
1d
13!
1~!
1[#
0a#
0b#
1\#
1j!
0l!
1=!
0;!
1J
0H
#360000
0d
1c
03!
12!
1y!
0~!
0[#
1a#
0}!
1^"
1s"
0a#
1b#
0\#
0j!
1l!
0b#
1U#
0=!
1;!
0l!
1V#
0J
1H
0;!
1h!
0H
1?!
1L
#420000
1d
13!
1~!
1_"
0s"
0U#
1O#
1P#
0V#
0h!
1f!
0?!
1A!
1N
0L
#480000
0d
0c
0b
1a
03!
02!
01!
10!
1u!
0t!
0y!
0~!
0_"
1s"
1}!
0^"
10"
0:"
0s"
1H#
1>#
0O#
1`!
0P#
1J#
0>#
1G!
0`!
1d!
0f!
1T
0G!
1C!
0A!
0T
1P
0N
#540000
1d
13!
1~!
1C#
0H#
0J#
1D#
1b!
0d!
1E!
0C!
1R
0P
#600000
0d
1c
03!
12!
1y!
0~!
0C#
1H#
0}!
1^"
1s"
0H#
1J#
0D#
0b!
1d!
0J#
1>#
0E!
1C!
1`!
0d!
0R
1P
1G!
0C!
1T
0P
#660000
1d
13!
1~!
1_"
0s"
0>#
18#
1^!
0`!
1I!
0G!
1V
0T
#720000
0d
0c
1b
03!
02!
11!
1t!
0y!
0~!
0_"
1s"
1}!
0^"
00"
11"
0s"
11#
1t"
08#
0^!
1w"
12#
0t"
0I!
1\!
1X!
0w"
0V
1K!
1O!
0X!
1\
1X
0O!
0\
#780000
1d
13!
1~!
1'#
01#
02#
1)#
1Z!
0\!
1M!
0K!
1Z
0X
#840000
0d
1c
03!
12!
1y!
0~!
0'#
11#
0}!
1^"
1s"
01#
12#
0)#
0Z!
1\!
02#
1t"
0M!
1K!
0\!
1w"
0Z
1X
0K!
1X!
0X
1O!
1\
#900000
1d
13!
1~!
1_"
0s"
0t"
1`"
1c"
0w"
0X!
1V!
0O!
1Q!
1^
0\
#960000
0d
0c
0b
0a
03!
02!
01!
00!
0u!
0t!
0y!
0~!
0_"
1s"
1}!
0^"
1v!
01"
0s"
1!"
1n#
0`"
1p!
0c"
1;"
0n#
17!
0p!
1T!
0V!
1D
07!
1S!
0Q!
1`
0^
0D
